MSHX1
GROUPS 8
MATERIAL 1
TEXTURE 0
GEOM 47 16 ; Blue forward vec 0
4.37114e-008 -3e-006 0.5 -0.838198 0.483934 0.251459 0 0
-0.075 -3e-006 0.25 -0.838198 0.483934 0.251459 0 0
4.37114e-008 -3e-006 0.5 2.19832e-008 0.967868 0.251459 0 0
4.37114e-008 -3e-006 0.5 0.838198 0.483934 0.251459 0 0
4.37114e-008 -3e-006 0.5 0.838198 -0.483934 0.251459 0 0
4.37114e-008 -3e-006 0.5 2.19832e-008 -0.967868 0.251459 0 0
0.0375 -0.064955 0.25 0.478913 -0.829502 0.287348 0 0
4.37114e-008 -3e-006 0.5 -0.838198 -0.483934 0.251459 0 0
-0.075 -3e-006 0.25 -0.838198 -0.483934 0.251459 0 0
-0.0375 0.064949 0.25 -0.838198 0.483934 0.251459 0 0
-0.0375 0.064949 0.25 0 0 0 0 0
4.37114e-008 -3e-006 0.5 0 0 0 0 0
4.37114e-008 -3e-006 0.5 0 0 0 0 0
-0.0375 0.064949 0.25 2.19832e-008 0.967868 0.251459 0 0
0.0375 0.064949 0.25 2.19832e-008 0.967868 0.251459 0 0
0.0375 0.064949 0.25 0 0 0 0 0
4.37114e-008 -3e-006 0.5 0 0 0 0 0
4.37114e-008 -3e-006 0.5 0 0 0 0 0
0.0375 0.064949 0.25 0.838198 0.483934 0.251459 0 0
0.075 -3e-006 0.25 0.838198 0.483934 0.251459 0 0
0.075 -3e-006 0.25 0 0 0 0 0
4.37114e-008 -3e-006 0.5 0 0 0 0 0
4.37114e-008 -3e-006 0.5 0 0 0 0 0
0.075 -3e-006 0.25 0.838198 -0.483934 0.251459 0 0
0.0375 -0.064955 0.25 0 0 0 0 0
4.37114e-008 -3e-006 0.5 0 0 0 0 0
4.37114e-008 -3e-006 0.5 0 0 0 0 0
-0.0375 -0.064955 0.25 2.19832e-008 -0.967868 0.251459 0 0
-0.0375 -0.064955 0.25 0 0 0 0 0
4.37114e-008 -3e-006 0.5 0 0 0 0 0
4.37114e-008 -3e-006 0.5 0 0 0 0 0
-0.0375 -0.064955 0.25 -0.838198 -0.483934 0.251459 0 0
-0.075 -3e-006 0.25 0 0 0 0 0
4.37114e-008 -3e-006 0.5 0 0 0 0 0
4.37114e-008 -3e-006 0.5 0 0 0 0 0
0.0375 -0.064955 0.25 -8.74228e-008 0 -1 0 0
0.075 -3e-006 0.25 -8.74228e-008 0 -1 0 0
-0.0375 -0.064955 0.25 -8.74228e-008 0 -1 0 0
0.075 -3e-006 0.25 -8.74228e-008 0 -1 0 0
0.0375 0.064949 0.25 -8.74228e-008 0 -1 0 0
-0.0375 -0.064955 0.25 -8.74228e-008 0 -1 0 0
0.0375 0.064949 0.25 -8.74228e-008 0 -1 0 0
-0.0375 0.064949 0.25 -8.74228e-008 0 -1 0 0
-0.0375 -0.064955 0.25 -8.74228e-008 0 -1 0 0
-0.0375 0.064949 0.25 -8.74228e-008 0 -1 0 0
-0.075 -3e-006 0.25 -8.74228e-008 0 -1 0 0
-0.0375 -0.064955 0.25 -8.74228e-008 0 -1 0 0
1 0 9
10 12 11
13 2 14
15 17 16
18 3 19
20 22 21
23 4 6
24 26 25
6 5 27
28 30 29
31 7 8
32 34 33
35 37 36
38 40 39
41 43 42
44 46 45
MATERIAL 1
TEXTURE 0
GEOM 48 20 ; Blue forward vec 1
-0.05 -3e-006 0.25 -0.866025 0.5 7.57103e-008 0 0
-0.05 -3e-006 -0.5 -0.866025 0.5 7.57103e-008 0 0
-0.025 0.043298 0.25 -0.866025 0.5 7.57103e-008 0 0
-0.025 0.043298 -0.5 0 1 0 0 0
0.025 0.043298 0.25 0 1 0 0 0
0.025 0.043298 -0.5 0.866025 0.5 -7.57103e-008 0 0
0.05 -3e-006 0.25 0.866025 0.5 -7.57103e-008 0 0
0.05 -3e-006 -0.5 0.866025 -0.5 -7.57103e-008 0 0
0.025 -0.043304 0.25 0.866025 -0.5 -7.57103e-008 0 0
0.025 -0.043304 -0.5 0 -1 0 0 0
-0.025 -0.043304 0.25 0 -1 0 0 0
-0.025 -0.043304 -0.5 -0.866025 -0.5 7.57103e-008 0 0
-0.05 -3e-006 0.25 -0.866025 -0.5 7.57103e-008 0 0
-0.05 -3e-006 -0.5 -0.866025 -0.5 7.57103e-008 0 0
-0.025 0.043298 -0.5 -0.866025 0.5 7.57103e-008 0 0
-0.025 0.043298 0.25 0 1 0 0 0
0.025 0.043298 -0.5 0 1 0 0 0
0.025 0.043298 0.25 0.866025 0.5 -7.57103e-008 0 0
0.05 -3e-006 -0.5 0.866025 0.5 -7.57103e-008 0 0
0.05 -3e-006 0.25 0.866025 -0.5 -7.57103e-008 0 0
0.025 -0.043304 -0.5 0.866025 -0.5 -7.57103e-008 0 0
0.025 -0.043304 0.25 0 -1 0 0 0
-0.025 -0.043304 -0.5 0 -1 0 0 0
-0.025 -0.043304 0.25 -0.866025 -0.5 7.57103e-008 0 0
0.025 -0.043304 -0.5 -8.74228e-008 0 -1 0 0
0.05 -3e-006 -0.5 -8.74228e-008 0 -1 0 0
-0.025 -0.043304 -0.5 -8.74228e-008 0 -1 0 0
0.05 -3e-006 -0.5 -8.74228e-008 0 -1 0 0
0.025 0.043298 -0.5 -8.74228e-008 0 -1 0 0
-0.025 -0.043304 -0.5 -8.74228e-008 0 -1 0 0
0.025 0.043298 -0.5 -8.74228e-008 0 -1 0 0
-0.025 0.043298 -0.5 -8.74228e-008 0 -1 0 0
-0.025 -0.043304 -0.5 -8.74228e-008 0 -1 0 0
-0.025 0.043298 -0.5 -8.74228e-008 0 -1 0 0
-0.05 -3e-006 -0.5 -8.74228e-008 0 -1 0 0
-0.025 -0.043304 -0.5 -8.74228e-008 0 -1 0 0
-0.025 0.043298 0.25 8.74228e-008 0 1 0 0
0.025 0.043298 0.25 8.74228e-008 0 1 0 0
-0.05 -3e-006 0.25 8.74228e-008 0 1 0 0
0.025 0.043298 0.25 8.74228e-008 0 1 0 0
0.05 -3e-006 0.25 8.74228e-008 0 1 0 0
-0.05 -3e-006 0.25 8.74228e-008 0 1 0 0
0.05 -3e-006 0.25 8.74228e-008 0 1 0 0
0.025 -0.043304 0.25 8.74228e-008 0 1 0 0
-0.05 -3e-006 0.25 8.74228e-008 0 1 0 0
0.025 -0.043304 0.25 8.74228e-008 0 1 0 0
-0.025 -0.043304 0.25 8.74228e-008 0 1 0 0
-0.05 -3e-006 0.25 8.74228e-008 0 1 0 0
0 2 1
1 2 14
15 4 3
3 4 16
17 6 5
5 6 18
19 8 7
7 8 20
21 10 9
9 10 22
23 12 11
11 12 13
24 26 25
27 29 28
30 32 31
33 35 34
36 38 37
39 41 40
42 44 43
45 47 46
MATERIAL 2
TEXTURE 0
GEOM 48 20 ; Green up vector 2
-0.05 0.250007 4.37114e-009 -0.866029 -9e-006 -0.499993 0 0
-0.05 -0.500007 1.40044e-005 -0.866029 -9e-006 -0.499993 0 0
-0.025 0.250006 -0.043302 -0.866029 -9e-006 -0.499993 0 0
-0.025 -0.500007 -0.043288 -8.74228e-008 -1.8e-005 -1 0 0
0.025 0.250006 -0.043302 -8.74228e-008 -1.8e-005 -1 0 0
0.025 -0.500007 -0.043288 0.866029 -9e-006 -0.499993 0 0
0.05 0.250007 -4.37114e-009 0.866029 -9e-006 -0.499993 0 0
0.05 -0.500007 1.39956e-005 0.866029 9e-006 0.499993 0 0
0.025 0.250008 0.043302 0.866029 9e-006 0.499993 0 0
0.025 -0.500006 0.043316 8.74228e-008 1.8e-005 1 0 0
-0.025 0.250008 0.043302 8.74228e-008 1.8e-005 1 0 0
-0.025 -0.500006 0.043316 -0.866029 9e-006 0.499993 0 0
-0.05 0.250007 4.37114e-009 -0.866029 9e-006 0.499993 0 0
-0.05 -0.500007 1.40044e-005 -0.866029 9e-006 0.499993 0 0
-0.025 -0.500007 -0.043288 -0.866029 -9e-006 -0.499993 0 0
-0.025 0.250006 -0.043302 -8.74228e-008 -1.8e-005 -1 0 0
0.025 -0.500007 -0.043288 -8.74228e-008 -1.8e-005 -1 0 0
0.025 0.250006 -0.043302 0.866029 -9e-006 -0.499993 0 0
0.05 -0.500007 1.39956e-005 0.866029 -9e-006 -0.499993 0 0
0.05 0.250007 -4.37114e-009 0.866029 9e-006 0.499993 0 0
0.025 -0.500006 0.043316 0.866029 9e-006 0.499993 0 0
0.025 0.250008 0.043302 8.74228e-008 1.8e-005 1 0 0
-0.025 -0.500006 0.043316 8.74228e-008 1.8e-005 1 0 0
-0.025 0.250008 0.043302 -0.866029 9e-006 0.499993 0 0
0.025 -0.500006 0.043316 1.57361e-012 -1 1.8e-005 0 0
0.05 -0.500007 1.39956e-005 1.57361e-012 -1 1.8e-005 0 0
-0.025 -0.500006 0.043316 1.57361e-012 -1 1.8e-005 0 0
0.05 -0.500007 1.39956e-005 1.57361e-012 -1 1.8e-005 0 0
0.025 -0.500007 -0.043288 1.57361e-012 -1 1.8e-005 0 0
-0.025 -0.500006 0.043316 1.57361e-012 -1 1.8e-005 0 0
0.025 -0.500007 -0.043288 1.57361e-012 -1 1.8e-005 0 0
-0.025 -0.500007 -0.043288 1.57361e-012 -1 1.8e-005 0 0
-0.025 -0.500006 0.043316 1.57361e-012 -1 1.8e-005 0 0
-0.025 -0.500007 -0.043288 1.57361e-012 -1 1.8e-005 0 0
-0.05 -0.500007 1.40044e-005 1.57361e-012 -1 1.8e-005 0 0
-0.025 -0.500006 0.043316 1.57361e-012 -1 1.8e-005 0 0
-0.025 0.250006 -0.043302 -1.57361e-012 1 -1.8e-005 0 0
0.025 0.250006 -0.043302 -1.57361e-012 1 -1.8e-005 0 0
-0.05 0.250007 4.37114e-009 -1.57361e-012 1 -1.8e-005 0 0
0.025 0.250006 -0.043302 -1.57361e-012 1 -1.8e-005 0 0
0.05 0.250007 -4.37114e-009 -1.57361e-012 1 -1.8e-005 0 0
-0.05 0.250007 4.37114e-009 -1.57361e-012 1 -1.8e-005 0 0
0.05 0.250007 -4.37114e-009 -1.57361e-012 1 -1.8e-005 0 0
0.025 0.250008 0.043302 -1.57361e-012 1 -1.8e-005 0 0
-0.05 0.250007 4.37114e-009 -1.57361e-012 1 -1.8e-005 0 0
0.025 0.250008 0.043302 -1.57361e-012 1 -1.8e-005 0 0
-0.025 0.250008 0.043302 -1.57361e-012 1 -1.8e-005 0 0
-0.05 0.250007 4.37114e-009 -1.57361e-012 1 -1.8e-005 0 0
0 2 1
1 2 14
15 4 3
3 4 16
17 6 5
5 6 18
19 8 7
7 8 20
21 10 9
9 10 22
23 12 11
11 12 13
24 26 25
27 29 28
30 32 31
33 35 34
36 38 37
39 41 40
42 44 43
45 47 46
MATERIAL 2
TEXTURE 0
GEOM 47 16 ; Green up vector 3
0 0.500007 0 -0.838203 0.251447 -0.483932 0 0
-0.075 0.250002 5.00656e-006 -0.838203 0.251447 -0.483932 0 0
0 0.500007 0 -8.46141e-008 0.251442 -0.967872 0 0
0 0.500007 0 0.838203 0.251447 -0.483932 0 0
0 0.500007 0 0.838203 0.251465 0.483923 0 0
0 0.500007 0 8.46133e-008 0.251477 0.967863 0 0
0.0375 0.250004 0.064958 0.47892 0.287362 0.829493 0 0
0 0.500007 0 -0.838203 0.251465 0.483923 0 0
-0.075 0.250002 5.00656e-006 -0.838203 0.251465 0.483923 0 0
-0.0375 0.250001 -0.064949 -0.838203 0.251447 -0.483932 0 0
-0.0375 0.250001 -0.064949 0 0 0 0 0
0 0.500007 0 0 0 0 0 0
0 0.500007 0 0 0 0 0 0
-0.0375 0.250001 -0.064949 -8.46141e-008 0.251442 -0.967872 0 0
0.0375 0.250001 -0.064949 -8.46141e-008 0.251442 -0.967872 0 0
0.0375 0.250001 -0.064949 0 0 0 0 0
0 0.500007 0 0 0 0 0 0
0 0.500007 0 0 0 0 0 0
0.0375 0.250001 -0.064949 0.838203 0.251447 -0.483932 0 0
0.075 0.250002 4.99344e-006 0.838203 0.251447 -0.483932 0 0
0.075 0.250002 4.99344e-006 0 0 0 0 0
0 0.500007 0 0 0 0 0 0
0 0.500007 0 0 0 0 0 0
0.075 0.250002 4.99344e-006 0.838203 0.251465 0.483923 0 0
0.0375 0.250004 0.064958 0 0 0 0 0
0 0.500007 0 0 0 0 0 0
0 0.500007 0 0 0 0 0 0
-0.0375 0.250004 0.064958 8.46133e-008 0.251477 0.967863 0 0
-0.0375 0.250004 0.064958 0 0 0 0 0
0 0.500007 0 0 0 0 0 0
0 0.500007 0 0 0 0 0 0
-0.0375 0.250004 0.064958 -0.838203 0.251465 0.483923 0 0
-0.075 0.250002 5.00656e-006 0 0 0 0 0
0 0.500007 0 0 0 0 0 0
0 0.500007 0 0 0 0 0 0
0.0375 0.250004 0.064958 1.57361e-012 -1 1.8e-005 0 0
0.075 0.250002 4.99344e-006 1.57361e-012 -1 1.8e-005 0 0
-0.0375 0.250004 0.064958 1.57361e-012 -1 1.8e-005 0 0
0.075 0.250002 4.99344e-006 1.57361e-012 -1 1.8e-005 0 0
0.0375 0.250001 -0.064949 1.57361e-012 -1 1.8e-005 0 0
-0.0375 0.250004 0.064958 1.57361e-012 -1 1.8e-005 0 0
0.0375 0.250001 -0.064949 1.57361e-012 -1 1.8e-005 0 0
-0.0375 0.250001 -0.064949 1.57361e-012 -1 1.8e-005 0 0
-0.0375 0.250004 0.064958 1.57361e-012 -1 1.8e-005 0 0
-0.0375 0.250001 -0.064949 1.57361e-012 -1 1.8e-005 0 0
-0.075 0.250002 5.00656e-006 1.57361e-012 -1 1.8e-005 0 0
-0.0375 0.250004 0.064958 1.57361e-012 -1 1.8e-005 0 0
1 0 9
10 12 11
13 2 14
15 17 16
18 3 19
20 22 21
23 4 6
24 26 25
6 5 27
28 30 29
31 7 8
32 34 33
35 37 36
38 40 39
41 43 42
44 46 45
MATERIAL 3
TEXTURE 0
GEOM 48 20 ; Red sidewards ve 4
0.25 0.049997 -2.18557e-008 -4.37114e-008 0.866025 -0.5 0 0
-0.5 0.049997 4.37114e-008 -4.37114e-008 0.866025 -0.5 0 0
0.25 0.024997 -0.043301 -4.37114e-008 0.866025 -0.5 0 0
-0.5 0.024997 -0.043301 -8.74228e-008 0 -1 0 0
0.25 -0.025003 -0.043301 -8.74228e-008 0 -1 0 0
-0.5 -0.025003 -0.043301 -4.37114e-008 -0.866025 -0.5 0 0
0.25 -0.050003 -2.18557e-008 -4.37114e-008 -0.866025 -0.5 0 0
-0.5 -0.050003 4.37114e-008 4.37114e-008 -0.866025 0.5 0 0
0.25 -0.025003 0.043301 4.37114e-008 -0.866025 0.5 0 0
-0.5 -0.025003 0.043301 8.74228e-008 0 1 0 0
0.25 0.024997 0.043301 8.74228e-008 0 1 0 0
-0.5 0.024997 0.043301 4.37114e-008 0.866025 0.5 0 0
0.25 0.049997 -2.18557e-008 4.37114e-008 0.866025 0.5 0 0
-0.5 0.049997 4.37114e-008 4.37114e-008 0.866025 0.5 0 0
-0.5 0.024997 -0.043301 -4.37114e-008 0.866025 -0.5 0 0
0.25 0.024997 -0.043301 -8.74228e-008 0 -1 0 0
-0.5 -0.025003 -0.043301 -8.74228e-008 0 -1 0 0
0.25 -0.025003 -0.043301 -4.37114e-008 -0.866025 -0.5 0 0
-0.5 -0.050003 4.37114e-008 -4.37114e-008 -0.866025 -0.5 0 0
0.25 -0.050003 -2.18557e-008 4.37114e-008 -0.866025 0.5 0 0
-0.5 -0.025003 0.043301 4.37114e-008 -0.866025 0.5 0 0
0.25 -0.025003 0.043301 8.74228e-008 0 1 0 0
-0.5 0.024997 0.043301 8.74228e-008 0 1 0 0
0.25 0.024997 0.043301 4.37114e-008 0.866025 0.5 0 0
-0.5 -0.025003 0.043301 -1 0 8.74228e-008 0 0
-0.5 -0.050003 4.37114e-008 -1 0 8.74228e-008 0 0
-0.5 0.024997 0.043301 -1 0 8.74228e-008 0 0
-0.5 -0.050003 4.37114e-008 -1 0 8.74228e-008 0 0
-0.5 -0.025003 -0.043301 -1 0 8.74228e-008 0 0
-0.5 0.024997 0.043301 -1 0 8.74228e-008 0 0
-0.5 -0.025003 -0.043301 -1 0 8.74228e-008 0 0
-0.5 0.024997 -0.043301 -1 0 8.74228e-008 0 0
-0.5 0.024997 0.043301 -1 0 8.74228e-008 0 0
-0.5 0.024997 -0.043301 -1 0 8.74228e-008 0 0
-0.5 0.049997 4.37114e-008 -1 0 8.74228e-008 0 0
-0.5 0.024997 0.043301 -1 0 8.74228e-008 0 0
0.25 0.024997 -0.043301 1 0 -8.74228e-008 0 0
0.25 -0.025003 -0.043301 1 0 -8.74228e-008 0 0
0.25 0.049997 -2.18557e-008 1 0 -8.74228e-008 0 0
0.25 -0.025003 -0.043301 1 0 -8.74228e-008 0 0
0.25 -0.050003 -2.18557e-008 1 0 -8.74228e-008 0 0
0.25 0.049997 -2.18557e-008 1 0 -8.74228e-008 0 0
0.25 -0.050003 -2.18557e-008 1 0 -8.74228e-008 0 0
0.25 -0.025003 0.043301 1 0 -8.74228e-008 0 0
0.25 0.049997 -2.18557e-008 1 0 -8.74228e-008 0 0
0.25 -0.025003 0.043301 1 0 -8.74228e-008 0 0
0.25 0.024997 0.043301 1 0 -8.74228e-008 0 0
0.25 0.049997 -2.18557e-008 1 0 -8.74228e-008 0 0
0 2 1
1 2 14
15 4 3
3 4 16
17 6 5
5 6 18
19 8 7
7 8 20
21 10 9
9 10 22
23 12 11
11 12 13
24 26 25
27 29 28
30 32 31
33 35 34
36 38 37
39 41 40
42 44 43
45 47 46
MATERIAL 3
TEXTURE 0
GEOM 47 16 ; Red sidewards ve 5
0.5 -3e-006 -4.37114e-008 0.251459 0.838198 -0.483934 0 0
0.25 0.074997 -2.18557e-008 0.251459 0.838198 -0.483934 0 0
0.5 -3e-006 -4.37114e-008 0.251459 0 -0.967868 0 0
0.5 -3e-006 -4.37114e-008 0.251459 -0.838198 -0.483934 0 0
0.5 -3e-006 -4.37114e-008 0.251459 -0.838198 0.483934 0 0
0.5 -3e-006 -4.37114e-008 0.251459 0 0.967868 0 0
0.25 -0.037503 0.064952 0.287348 -0.478913 0.829502 0 0
0.5 -3e-006 -4.37114e-008 0.251459 0.838198 0.483934 0 0
0.25 0.074997 -2.18557e-008 0.251459 0.838198 0.483934 0 0
0.25 0.037497 -0.064952 0.251459 0.838198 -0.483934 0 0
0.25 0.037497 -0.064952 0 0 0 0 0
0.5 -3e-006 -4.37114e-008 0 0 0 0 0
0.5 -3e-006 -4.37114e-008 0 0 0 0 0
0.25 0.037497 -0.064952 0.251459 0 -0.967868 0 0
0.25 -0.037503 -0.064952 0.251459 0 -0.967868 0 0
0.25 -0.037503 -0.064952 0 0 0 0 0
0.5 -3e-006 -4.37114e-008 0 0 0 0 0
0.5 -3e-006 -4.37114e-008 0 0 0 0 0
0.25 -0.037503 -0.064952 0.251459 -0.838198 -0.483934 0 0
0.25 -0.075003 -2.18557e-008 0.251459 -0.838198 -0.483934 0 0
0.25 -0.075003 -2.18557e-008 0 0 0 0 0
0.5 -3e-006 -4.37114e-008 0 0 0 0 0
0.5 -3e-006 -4.37114e-008 0 0 0 0 0
0.25 -0.075003 -2.18557e-008 0.251459 -0.838198 0.483934 0 0
0.25 -0.037503 0.064952 0 0 0 0 0
0.5 -3e-006 -4.37114e-008 0 0 0 0 0
0.5 -3e-006 -4.37114e-008 0 0 0 0 0
0.25 0.037497 0.064952 0.251459 0 0.967868 0 0
0.25 0.037497 0.064952 0 0 0 0 0
0.5 -3e-006 -4.37114e-008 0 0 0 0 0
0.5 -3e-006 -4.37114e-008 0 0 0 0 0
0.25 0.037497 0.064952 0.251459 0.838198 0.483934 0 0
0.25 0.074997 -2.18557e-008 0 0 0 0 0
0.5 -3e-006 -4.37114e-008 0 0 0 0 0
0.5 -3e-006 -4.37114e-008 0 0 0 0 0
0.25 -0.037503 0.064952 -1 0 8.74228e-008 0 0
0.25 -0.075003 -2.18557e-008 -1 0 8.74228e-008 0 0
0.25 0.037497 0.064952 -1 0 8.74228e-008 0 0
0.25 -0.075003 -2.18557e-008 -1 0 8.74228e-008 0 0
0.25 -0.037503 -0.064952 -1 0 8.74228e-008 0 0
0.25 0.037497 0.064952 -1 0 8.74228e-008 0 0
0.25 -0.037503 -0.064952 -1 0 8.74228e-008 0 0
0.25 0.037497 -0.064952 -1 0 8.74228e-008 0 0
0.25 0.037497 0.064952 -1 0 8.74228e-008 0 0
0.25 0.037497 -0.064952 -1 0 8.74228e-008 0 0
0.25 0.074997 -2.18557e-008 -1 0 8.74228e-008 0 0
0.25 0.037497 0.064952 -1 0 8.74228e-008 0 0
1 0 9
10 12 11
13 2 14
15 17 16
18 3 19
20 22 21
23 4 6
24 26 25
6 5 27
28 30 29
31 7 8
32 34 33
35 37 36
38 40 39
41 43 42
44 46 45
MATERIAL 4
TEXTURE 0
GEOM 48 20 ; Yellow speed vec 6
-0.025 -3e-006 0.25 -0.866025 0.5 7.57103e-008 0 0
-0.025 -3e-006 -0.5 -0.866025 0.5 7.57103e-008 0 0
-0.0125 0.021648 0.25 -0.866025 0.5 7.57103e-008 0 0
-0.0125 0.021648 -0.5 0 1 0 0 0
0.0125 0.021648 0.25 0 1 0 0 0
0.0125 0.021648 -0.5 0.866025 0.5 -7.57103e-008 0 0
0.025 -3e-006 0.25 0.866025 0.5 -7.57103e-008 0 0
0.025 -3e-006 -0.5 0.866025 -0.5 -7.57103e-008 0 0
0.0125 -0.021654 0.25 0.866025 -0.5 -7.57103e-008 0 0
0.0125 -0.021654 -0.5 0 -1 0 0 0
-0.0125 -0.021654 0.25 0 -1 0 0 0
-0.0125 -0.021654 -0.5 -0.866025 -0.5 7.57103e-008 0 0
-0.025 -3e-006 0.25 -0.866025 -0.5 7.57103e-008 0 0
-0.025 -3e-006 -0.5 -0.866025 -0.5 7.57103e-008 0 0
-0.0125 0.021648 -0.5 -0.866025 0.5 7.57103e-008 0 0
-0.0125 0.021648 0.25 0 1 0 0 0
0.0125 0.021648 -0.5 0 1 0 0 0
0.0125 0.021648 0.25 0.866025 0.5 -7.57103e-008 0 0
0.025 -3e-006 -0.5 0.866025 0.5 -7.57103e-008 0 0
0.025 -3e-006 0.25 0.866025 -0.5 -7.57103e-008 0 0
0.0125 -0.021654 -0.5 0.866025 -0.5 -7.57103e-008 0 0
0.0125 -0.021654 0.25 0 -1 0 0 0
-0.0125 -0.021654 -0.5 0 -1 0 0 0
-0.0125 -0.021654 0.25 -0.866025 -0.5 7.57103e-008 0 0
0.0125 -0.021654 -0.5 -8.74228e-008 0 -1 0 0
0.025 -3e-006 -0.5 -8.74228e-008 0 -1 0 0
-0.0125 -0.021654 -0.5 -8.74228e-008 0 -1 0 0
0.025 -3e-006 -0.5 -8.74228e-008 0 -1 0 0
0.0125 0.021648 -0.5 -8.74228e-008 0 -1 0 0
-0.0125 -0.021654 -0.5 -8.74228e-008 0 -1 0 0
0.0125 0.021648 -0.5 -8.74228e-008 0 -1 0 0
-0.0125 0.021648 -0.5 -8.74228e-008 0 -1 0 0
-0.0125 -0.021654 -0.5 -8.74228e-008 0 -1 0 0
-0.0125 0.021648 -0.5 -8.74228e-008 0 -1 0 0
-0.025 -3e-006 -0.5 -8.74228e-008 0 -1 0 0
-0.0125 -0.021654 -0.5 -8.74228e-008 0 -1 0 0
-0.0125 0.021648 0.25 8.74228e-008 0 1 0 0
0.0125 0.021648 0.25 8.74228e-008 0 1 0 0
-0.025 -3e-006 0.25 8.74228e-008 0 1 0 0
0.0125 0.021648 0.25 8.74228e-008 0 1 0 0
0.025 -3e-006 0.25 8.74228e-008 0 1 0 0
-0.025 -3e-006 0.25 8.74228e-008 0 1 0 0
0.025 -3e-006 0.25 8.74228e-008 0 1 0 0
0.0125 -0.021654 0.25 8.74228e-008 0 1 0 0
-0.025 -3e-006 0.25 8.74228e-008 0 1 0 0
0.0125 -0.021654 0.25 8.74228e-008 0 1 0 0
-0.0125 -0.021654 0.25 8.74228e-008 0 1 0 0
-0.025 -3e-006 0.25 8.74228e-008 0 1 0 0
0 2 1
1 2 14
15 4 3
3 4 16
17 6 5
5 6 18
19 8 7
7 8 20
21 10 9
9 10 22
23 12 11
11 12 13
24 26 25
27 29 28
30 32 31
33 35 34
36 38 37
39 41 40
42 44 43
45 47 46
MATERIAL 4
TEXTURE 0
GEOM 47 16 ; Yellow speed vec 7
4.37114e-008 -3e-006 0.5 -0.85332 0.492665 0.170664 0 0
-0.05 -3e-006 0.25 -0.85332 0.492665 0.170664 0 0
4.37114e-008 -3e-006 0.5 1.49199e-008 0.985329 0.170664 0 0
4.37114e-008 -3e-006 0.5 0.85332 0.492665 0.170664 0 0
4.37114e-008 -3e-006 0.5 0.85332 -0.492665 0.170664 0 0
4.37114e-008 -3e-006 0.5 1.49199e-008 -0.985329 0.170664 0 0
0.025 -0.043304 0.25 0.49029 -0.849208 0.196116 0 0
4.37114e-008 -3e-006 0.5 -0.85332 -0.492665 0.170664 0 0
-0.05 -3e-006 0.25 -0.85332 -0.492665 0.170664 0 0
-0.025 0.043298 0.25 -0.85332 0.492665 0.170664 0 0
-0.025 0.043298 0.25 0 0 0 0 0
4.37114e-008 -3e-006 0.5 0 0 0 0 0
4.37114e-008 -3e-006 0.5 0 0 0 0 0
-0.025 0.043298 0.25 1.49199e-008 0.985329 0.170664 0 0
0.025 0.043298 0.25 1.49199e-008 0.985329 0.170664 0 0
0.025 0.043298 0.25 0 0 0 0 0
4.37114e-008 -3e-006 0.5 0 0 0 0 0
4.37114e-008 -3e-006 0.5 0 0 0 0 0
0.025 0.043298 0.25 0.85332 0.492665 0.170664 0 0
0.05 -3e-006 0.25 0.85332 0.492665 0.170664 0 0
0.05 -3e-006 0.25 0 0 0 0 0
4.37114e-008 -3e-006 0.5 0 0 0 0 0
4.37114e-008 -3e-006 0.5 0 0 0 0 0
0.05 -3e-006 0.25 0.85332 -0.492665 0.170664 0 0
0.025 -0.043304 0.25 0 0 0 0 0
4.37114e-008 -3e-006 0.5 0 0 0 0 0
4.37114e-008 -3e-006 0.5 0 0 0 0 0
-0.025 -0.043304 0.25 1.49199e-008 -0.985329 0.170664 0 0
-0.025 -0.043304 0.25 0 0 0 0 0
4.37114e-008 -3e-006 0.5 0 0 0 0 0
4.37114e-008 -3e-006 0.5 0 0 0 0 0
-0.025 -0.043304 0.25 -0.85332 -0.492665 0.170664 0 0
-0.05 -3e-006 0.25 0 0 0 0 0
4.37114e-008 -3e-006 0.5 0 0 0 0 0
4.37114e-008 -3e-006 0.5 0 0 0 0 0
0.025 -0.043304 0.25 -8.74228e-008 0 -1 0 0
0.05 -3e-006 0.25 -8.74228e-008 0 -1 0 0
-0.025 -0.043304 0.25 -8.74228e-008 0 -1 0 0
0.05 -3e-006 0.25 -8.74228e-008 0 -1 0 0
0.025 0.043298 0.25 -8.74228e-008 0 -1 0 0
-0.025 -0.043304 0.25 -8.74228e-008 0 -1 0 0
0.025 0.043298 0.25 -8.74228e-008 0 -1 0 0
-0.025 0.043298 0.25 -8.74228e-008 0 -1 0 0
-0.025 -0.043304 0.25 -8.74228e-008 0 -1 0 0
-0.025 0.043298 0.25 -8.74228e-008 0 -1 0 0
-0.05 -3e-006 0.25 -8.74228e-008 0 -1 0 0
-0.025 -0.043304 0.25 -8.74228e-008 0 -1 0 0
1 0 9
10 12 11
13 2 14
15 17 16
18 3 19
20 22 21
23 4 6
24 26 25
6 5 27
28 30 29
31 7 8
32 34 33
35 37 36
38 40 39
41 43 42
44 46 45
MATERIALS 4
Material0
Material1
Material2
Material3
MATERIAL Material0
0 0 1 1
0 0 1 1
1 1 1 1
0 0 1 1
MATERIAL Material1
0 1 0 1
0 1 0 1
1 1 1 1
0 1 0 1
MATERIAL Material2
1 0 0 1
1 0 0 1
1 1 1 1
1 0 0 1
MATERIAL Material3
1 1 0 1
1 1 0 1
1 1 1 1
1 1 0 1
TEXTURES 1
0
